Analyzing the Bechdel Test: Budget Trends and Revenue Outcomes in Cinema
…
Interpretation: The plot shows that the 1980s (’80-’89) display a different trend compared to other decades in the relationship between budget and the predicted probability of passing the Bechdel Test. The following is how we dig into the different trend:

[1] 123

Given that the sample size for the 1980s is 123 out of a total of 1776 movies, this represents about 7% of the total dataset. This relatively small proportion could be influencing the unusual trend in the 1980s panel.

# A tibble: 25 × 3
# Groups:   decade_code [5]
   decade_code genre  movie_count
   <fct>       <fct>        <int>
 1 '70-'79     Drama           16
 2 '70-'79     Comedy          13
 3 '70-'79     Action           9
 4 '70-'79     Horror           8
 5 '70-'79     Other            7
 6 '80-'89     Action          42
 7 '80-'89     Other           31
 8 '80-'89     Comedy          23
 9 '80-'89     Drama           16
10 '80-'89     Horror          11
# ℹ 15 more rows
…
